{
    "gym": {
        "type": "object",
        "properties": {
            "id": {"type": "integer"},
            "longitude": {"type": "number", "format": "float"},
            "latitude": {"type": "number", "format": "float"},
            "icon": {"type": "string"},
            "name": {"type": "string"},
            "rating": {"type": "number", "format": "float"},
            "numberOfRatings": {"type": "integer"},
            "vicinity": {"type": "string"},
            "operational": {"type": "string"},
            "type1": {"type": "string"},
            "type2": {"type": "string"},
            "type3": {"type": "string"}
        },
        "required": ["id", "icon", "name", "rating", "numberOfRatings", "vicinity", "operational"]
    },
    "social_group": {
        "type": "object",
        "properties": {
            "id": {"type": "integer"},
            "longitude": {"type": ["number", "null"], "format": "float"},
            "latitude": {"type": ["number", "null"], "format": "float"},
            "name": {"type": "string"},
            "image": {"type": ["string", "null"]},
            "rating": {"type": "number", "format": "float"},
            "numberOfRatings": {"type": "integer"},
            "url": {"type": "string"},
            "address": {"type": ["string", "null"]},
            "city": {"type": ["string", "null"]},
            "country": {"type": ["string", "null"]},
            "state": {"type": ["string", "null"]},
            "zip_code": {"type": ["string", "null"]},
            "phone": {"type": ["string", "null"]},
            "title": {"type": "string"}
        },
        "required": ["id", "longitude", "latitude", "name", "image", "rating", "numberOfRatings", "url", "address", "city", "country", "state", "zip_code", "phone", "title"]
    },
    "exercise": {
        "type": "object",
        "properties": {
            "id": {"type": "integer"},
            "name": {"type": "string"},
            "description": {"type": ["string", "null"]},
            "category": {"type": ["string", "null"]},
            "equipment": {"type": ["string", "null"]},
            "muscle_name": {"type": ["string", "null"]},
            "is_front": {"type": ["boolean", "null"]},
            "img": {"type": ["string", "null"]},
            "video": {"type": "string"}
        },
        "required": ["id", "name", "description", "category", "equipment", "muscle_name", "is_front", "img", "video"]
    }
}